{
  "iisSettings": {
    "windowsAuthentication": false,
    "anonymousAuthentication": true,
    "iis": {
      "applicationUrl": "http://localhost/QL_USERNetCore",
      "sslPort": 0
    },
    "iisExpress": {
      "applicationUrl": "http://localhost:49831",
      "sslPort": 44322
    }
  },
  "profiles": {
    "IIS Express": {
      "commandName": "Project",
      "launchBrowser": true,
      "environmentVariables": {
        "ASPNETCORE_ENVIRONMENT": "Development"
      }
    },
    "QL_USERNetCore": {
      "commandName": "IIS",
      "launchBrowser": true,
      "environmentVariables": {
        "ASPNETCORE_ENVIRONMENT": "Development"
      },
      "applicationUrl": "https://localhost:5001;http://localhost:5000"
    }
  }
}